INDEX VERSION 1.3+C:\Users\prana\workspace\M3 - JDBC\Project_M3\.metadata\.plugins\org.eclipse.wst.jsdt.core\indexes
2002623409.index
2387157002.index
3255154924.index
327641777.index
3670333040.index
2072141885.index
1575941004.index
